{
    "fpga_clk_freq": 500000000.0,
    "Q0.qdrv": {
        "core_ind": 0,
        "elem_ind": 0,
        "core_name": "qubit",
        "env_mem_name": "qubit_qdrv_env0",
        "freq_mem_name": "qubit_qdrv_freq0",
        "elem_type": "rf",
        "elem_params": {
            "interp_ratio": 1,
            "samples_per_clk": 16
        }
    },
    "qubit_qdrv_1": {
        "core_ind": 1,
        "elem_ind": 0,
        "core_name": "qubit",
        "env_mem_name": "qubit_qdrv_env1",
        "freq_mem_name": "qubit_qdrv_freq1",
        "elem_type": "rf",
        "elem_params": {
            "interp_ratio": 1,
            "samples_per_clk": 16
        }
    },
    "qubit_qdrv_2": {
        "core_ind": 2,
        "elem_ind": 0,
        "core_name": "qubit",
        "env_mem_name": "qubit_qdrv_env2",
        "freq_mem_name": "qubit_qdrv_freq2",
        "elem_type": "rf",
        "elem_params": {
            "interp_ratio": 1,
            "samples_per_clk": 16
        }
    },
    "Q0.rdrv": {
        "core_ind": 0,
        "elem_ind": 1,
        "core_name": "qubit",
        "env_mem_name": "qubit_rdrv_env0",
        "freq_mem_name": "qubit_rdrv_freq0",
        "elem_type": "rf",
        "elem_params": {
            "interp_ratio": 16,
            "samples_per_clk": 16
        }
    },
    "qubit_rdrv_1": {
        "core_ind": 1,
        "elem_ind": 1,
        "core_name": "qubit",
        "env_mem_name": "qubit_rdrv_env1",
        "freq_mem_name": "qubit_rdrv_freq1",
        "elem_type": "rf",
        "elem_params": {
            "interp_ratio": 16,
            "samples_per_clk": 16
        }
    },
    "qubit_rdrv_2": {
        "core_ind": 2,
        "elem_ind": 1,
        "core_name": "qubit",
        "env_mem_name": "qubit_rdrv_env2",
        "freq_mem_name": "qubit_rdrv_freq2",
        "elem_type": "rf",
        "elem_params": {
            "interp_ratio": 16,
            "samples_per_clk": 16
        }
    },
    "Q0.rdlo": {
        "core_ind": 0,
        "elem_ind": 2,
        "core_name": "qubit",
        "env_mem_name": "qubit_rdlo_env0",
        "freq_mem_name": "qubit_rdlo_freq0",
        "elem_type": "rf",
        "elem_params": {
            "interp_ratio": 1,
            "samples_per_clk": 4
        },
        "acc_mem_name": "qubit_accbuf0"
    },
    "qubit_rdlo_1": {
        "core_ind": 1,
        "elem_ind": 2,
        "core_name": "qubit",
        "env_mem_name": "qubit_rdlo_env1",
        "freq_mem_name": "qubit_rdlo_freq1",
        "elem_type": "rf",
        "elem_params": {
            "interp_ratio": 1,
            "samples_per_clk": 4
        },
        "acc_mem_name": "qubit_accbuf1"
    },
    "qubit_rdlo_2": {
        "core_ind": 2,
        "elem_ind": 2,
        "core_name": "qubit",
        "env_mem_name": "qubit_rdlo_env2",
        "freq_mem_name": "qubit_rdlo_freq2",
        "elem_type": "rf",
        "elem_params": {
            "interp_ratio": 1,
            "samples_per_clk": 4
        },
        "acc_mem_name": "qubit_accbuf2"
    },
    "coupler_cdrv_0": {
        "core_ind": 0,
        "elem_ind": 0,
        "core_name": "coupler",
        "env_mem_name": "coupler_cdrv_env0",
        "freq_mem_name": "coupler_cdrv_freq0",
        "elem_type": "rf",
        "elem_params": {
            "interp_ratio": 1,
            "samples_per_clk": 16
        }
    },
    "coupler_cdrv_1": {
        "core_ind": 1,
        "elem_ind": 0,
        "core_name": "coupler",
        "env_mem_name": "coupler_cdrv_env1",
        "freq_mem_name": "coupler_cdrv_freq1",
        "elem_type": "rf",
        "elem_params": {
            "interp_ratio": 1,
            "samples_per_clk": 16
        }
    },
    "coupler_cdrv_2": {
        "core_ind": 2,
        "elem_ind": 0,
        "core_name": "coupler",
        "env_mem_name": "coupler_cdrv_env2",
        "freq_mem_name": "coupler_cdrv_freq2",
        "elem_type": "rf",
        "elem_params": {
            "interp_ratio": 1,
            "samples_per_clk": 16
        }
    },
    "coupler_cdrv_3": {
        "core_ind": 3,
        "elem_ind": 0,
        "core_name": "coupler",
        "env_mem_name": "coupler_cdrv_env3",
        "freq_mem_name": "coupler_cdrv_freq3",
        "elem_type": "rf",
        "elem_params": {
            "interp_ratio": 1,
            "samples_per_clk": 16
        }
    },
    "coupler_dc_0": {
        "core_ind": 0,
        "elem_ind": 1,
        "core_name": "coupler",
        "elem_type": "dc",
        "elem_params": {}
    },
    "coupler_dc_1": {
        "core_ind": 1,
        "elem_ind": 1,
        "core_name": "coupler",
        "elem_type": "dc",
        "elem_params": {}
    },
    "coupler_dc_2": {
        "core_ind": 2,
        "elem_ind": 1,
        "core_name": "coupler",
        "elem_type": "dc",
        "elem_params": {}
    },
    "coupler_dc_3": {
        "core_ind": 3,
        "elem_ind": 1,
        "core_name": "coupler",
        "elem_type": "dc",
        "elem_params": {}
    },
    "drive_qdrv_0": {
        "core_ind": 0,
        "elem_ind": 0,
        "core_name": "drive",
        "env_mem_name": "drive_qdrv_env0",
        "freq_mem_name": "drive_qdrv_freq0",
        "elem_type": "rf",
        "elem_params": {
            "interp_ratio": 1,
            "samples_per_clk": 16
        }
    },
    "drive_qdrv_1": {
        "core_ind": 1,
        "elem_ind": 0,
        "core_name": "drive",
        "env_mem_name": "drive_qdrv_env1",
        "freq_mem_name": "drive_qdrv_freq1",
        "elem_type": "rf",
        "elem_params": {
            "interp_ratio": 1,
            "samples_per_clk": 16
        }
    },
    "drive_qdrv_2": {
        "core_ind": 2,
        "elem_ind": 0,
        "core_name": "drive",
        "env_mem_name": "drive_qdrv_env2",
        "freq_mem_name": "drive_qdrv_freq2",
        "elem_type": "rf",
        "elem_params": {
            "interp_ratio": 1,
            "samples_per_clk": 16
        }
    }
}
